No executable found matching command "dotnet-Service.Email.API.dll.API.dll"
No executable found matching command "dotnet-Service.Email.API.dll.API.dll"
No executable found matching command "dotnet-Service.FileStorage.API.dll"

Unhandled Exception: System.AggregateException: One or more errors occurred. (Error -98 EADDRINUSE address already in use) ---> Microsoft.AspNetCore.Server.Kestrel.Internal.Networking.UvException: Error -98 EADDRINUSE address already in use
   at Microsoft.AspNetCore.Server.Kestrel.Internal.Networking.Libuv.Check(Int32 statusCode)
   at Microsoft.AspNetCore.Server.Kestrel.Internal.Networking.UvTcpHandle.GetSockIPEndPoint()
   at Microsoft.AspNetCore.Server.Kestrel.Internal.Http.TcpListener.CreateListenSocket()
   at Microsoft.AspNetCore.Server.Kestrel.Internal.Http.Listener.<>c.<StartAsync>b__6_0(Object state)
   --- End of inner exception stack trace ---
   at System.Threading.Tasks.Task.ThrowIfExceptional(Boolean includeTaskCanceledExceptions)
   at System.Threading.Tasks.Task.Wait(Int32 millisecondsTimeout, CancellationToken cancellationToken)
   at Microsoft.AspNetCore.Server.Kestrel.Internal.KestrelEngine.CreateServer(ServerAddress address)
   at Microsoft.AspNetCore.Server.Kestrel.KestrelServer.Start[TContext](IHttpApplication`1 application)
   at Microsoft.AspNetCore.Hosting.Internal.WebHost.Start()
   at Microsoft.AspNetCore.Hosting.WebHostExtensions.Run(IWebHost host, CancellationToken token, String shutdownMessage)
   at Microsoft.AspNetCore.Hosting.WebHostExtensions.Run(IWebHost host)
   at Service.Email.API.Program.Main(String[] args)

Unhandled Exception: System.AggregateException: One or more errors occurred. (Error -98 EADDRINUSE address already in use) ---> Microsoft.AspNetCore.Server.Kestrel.Internal.Networking.UvException: Error -98 EADDRINUSE address already in use
   at Microsoft.AspNetCore.Server.Kestrel.Internal.Networking.Libuv.Check(Int32 statusCode)
   at Microsoft.AspNetCore.Server.Kestrel.Internal.Networking.UvTcpHandle.GetSockIPEndPoint()
   at Microsoft.AspNetCore.Server.Kestrel.Internal.Http.TcpListener.CreateListenSocket()
   at Microsoft.AspNetCore.Server.Kestrel.Internal.Http.Listener.<>c.<StartAsync>b__6_0(Object state)
   --- End of inner exception stack trace ---
   at System.Threading.Tasks.Task.ThrowIfExceptional(Boolean includeTaskCanceledExceptions)
   at System.Threading.Tasks.Task.Wait(Int32 millisecondsTimeout, CancellationToken cancellationToken)
   at Microsoft.AspNetCore.Server.Kestrel.Internal.KestrelEngine.CreateServer(ServerAddress address)
   at Microsoft.AspNetCore.Server.Kestrel.KestrelServer.Start[TContext](IHttpApplication`1 application)
   at Microsoft.AspNetCore.Hosting.Internal.WebHost.Start()
   at Microsoft.AspNetCore.Hosting.WebHostExtensions.Run(IWebHost host, CancellationToken token, String shutdownMessage)
   at Microsoft.AspNetCore.Hosting.WebHostExtensions.Run(IWebHost host)
   at Service.Email.API.Program.Main(String[] args)

Unhandled Exception: System.AggregateException: One or more errors occurred. (Error -98 EADDRINUSE address already in use) ---> Microsoft.AspNetCore.Server.Kestrel.Internal.Networking.UvException: Error -98 EADDRINUSE address already in use
   at Microsoft.AspNetCore.Server.Kestrel.Internal.Networking.Libuv.Check(Int32 statusCode)
   at Microsoft.AspNetCore.Server.Kestrel.Internal.Networking.UvTcpHandle.GetSockIPEndPoint()
   at Microsoft.AspNetCore.Server.Kestrel.Internal.Http.TcpListener.CreateListenSocket()
   at Microsoft.AspNetCore.Server.Kestrel.Internal.Http.Listener.<>c.<StartAsync>b__6_0(Object state)
   --- End of inner exception stack trace ---
   at System.Threading.Tasks.Task.ThrowIfExceptional(Boolean includeTaskCanceledExceptions)
   at System.Threading.Tasks.Task.Wait(Int32 millisecondsTimeout, CancellationToken cancellationToken)
   at Microsoft.AspNetCore.Server.Kestrel.Internal.KestrelEngine.CreateServer(ServerAddress address)
   at Microsoft.AspNetCore.Server.Kestrel.KestrelServer.Start[TContext](IHttpApplication`1 application)
   at Microsoft.AspNetCore.Hosting.Internal.WebHost.Start()
   at Microsoft.AspNetCore.Hosting.WebHostExtensions.Run(IWebHost host, CancellationToken token, String shutdownMessage)
   at Microsoft.AspNetCore.Hosting.WebHostExtensions.Run(IWebHost host)
   at Service.Email.API.Program.Main(String[] args)
Hosting environment: Production
Content root path: /home/cedro/Services/Service.Email.API
Now listening on: http://*:8080
Application started. Press Ctrl+C to shut down.

Unhandled Exception: System.AggregateException: One or more errors occurred. (Error -98 EADDRINUSE address already in use) ---> Microsoft.AspNetCore.Server.Kestrel.Internal.Networking.UvException: Error -98 EADDRINUSE address already in use
   at Microsoft.AspNetCore.Server.Kestrel.Internal.Networking.Libuv.Check(Int32 statusCode)
   at Microsoft.AspNetCore.Server.Kestrel.Internal.Networking.UvTcpHandle.GetSockIPEndPoint()
   at Microsoft.AspNetCore.Server.Kestrel.Internal.Http.TcpListener.CreateListenSocket()
   at Microsoft.AspNetCore.Server.Kestrel.Internal.Http.Listener.<>c.<StartAsync>b__6_0(Object state)
   --- End of inner exception stack trace ---
   at System.Threading.Tasks.Task.ThrowIfExceptional(Boolean includeTaskCanceledExceptions)
   at System.Threading.Tasks.Task.Wait(Int32 millisecondsTimeout, CancellationToken cancellationToken)
   at Microsoft.AspNetCore.Server.Kestrel.Internal.KestrelEngine.CreateServer(ServerAddress address)
   at Microsoft.AspNetCore.Server.Kestrel.KestrelServer.Start[TContext](IHttpApplication`1 application)
   at Microsoft.AspNetCore.Hosting.Internal.WebHost.Start()
   at Microsoft.AspNetCore.Hosting.WebHostExtensions.Run(IWebHost host, CancellationToken token, String shutdownMessage)
   at Microsoft.AspNetCore.Hosting.WebHostExtensions.Run(IWebHost host)
   at Service.Email.API.Program.Main(String[] args)

Unhandled Exception: System.AggregateException: One or more errors occurred. (Error -98 EADDRINUSE address already in use) ---> Microsoft.AspNetCore.Server.Kestrel.Internal.Networking.UvException: Error -98 EADDRINUSE address already in use
   at Microsoft.AspNetCore.Server.Kestrel.Internal.Networking.Libuv.Check(Int32 statusCode)
   at Microsoft.AspNetCore.Server.Kestrel.Internal.Networking.UvTcpHandle.GetSockIPEndPoint()
   at Microsoft.AspNetCore.Server.Kestrel.Internal.Http.TcpListener.CreateListenSocket()
   at Microsoft.AspNetCore.Server.Kestrel.Internal.Http.Listener.<>c.<StartAsync>b__6_0(Object state)
   --- End of inner exception stack trace ---
   at System.Threading.Tasks.Task.ThrowIfExceptional(Boolean includeTaskCanceledExceptions)
   at System.Threading.Tasks.Task.Wait(Int32 millisecondsTimeout, CancellationToken cancellationToken)
   at Microsoft.AspNetCore.Server.Kestrel.Internal.KestrelEngine.CreateServer(ServerAddress address)
   at Microsoft.AspNetCore.Server.Kestrel.KestrelServer.Start[TContext](IHttpApplication`1 application)
   at Microsoft.AspNetCore.Hosting.Internal.WebHost.Start()
   at Microsoft.AspNetCore.Hosting.WebHostExtensions.Run(IWebHost host, CancellationToken token, String shutdownMessage)
   at Microsoft.AspNetCore.Hosting.WebHostExtensions.Run(IWebHost host)
   at Service.Email.API.Program.Main(String[] args)
Hosting environment: Production
Content root path: /home/cedro/Services_DEV/Service.Email.API
Now listening on: http://*:8080
Application started. Press Ctrl+C to shut down.

Unhandled Exception: System.AggregateException: One or more errors occurred. (Error -98 EADDRINUSE address already in use) ---> Microsoft.AspNetCore.Server.Kestrel.Internal.Networking.UvException: Error -98 EADDRINUSE address already in use
   at Microsoft.AspNetCore.Server.Kestrel.Internal.Networking.Libuv.Check(Int32 statusCode)
   at Microsoft.AspNetCore.Server.Kestrel.Internal.Networking.UvTcpHandle.GetSockIPEndPoint()
   at Microsoft.AspNetCore.Server.Kestrel.Internal.Http.TcpListener.CreateListenSocket()
   at Microsoft.AspNetCore.Server.Kestrel.Internal.Http.Listener.<>c.<StartAsync>b__6_0(Object state)
   --- End of inner exception stack trace ---
   at System.Threading.Tasks.Task.ThrowIfExceptional(Boolean includeTaskCanceledExceptions)
   at System.Threading.Tasks.Task.Wait(Int32 millisecondsTimeout, CancellationToken cancellationToken)
   at Microsoft.AspNetCore.Server.Kestrel.Internal.KestrelEngine.CreateServer(ServerAddress address)
   at Microsoft.AspNetCore.Server.Kestrel.KestrelServer.Start[TContext](IHttpApplication`1 application)
   at Microsoft.AspNetCore.Hosting.Internal.WebHost.Start()
   at Microsoft.AspNetCore.Hosting.WebHostExtensions.Run(IWebHost host, CancellationToken token, String shutdownMessage)
   at Microsoft.AspNetCore.Hosting.WebHostExtensions.Run(IWebHost host)
   at Service.Email.API.Program.Main(String[] args)

Unhandled Exception: System.AggregateException: One or more errors occurred. (Error -98 EADDRINUSE address already in use) ---> Microsoft.AspNetCore.Server.Kestrel.Internal.Networking.UvException: Error -98 EADDRINUSE address already in use
   at Microsoft.AspNetCore.Server.Kestrel.Internal.Networking.Libuv.Check(Int32 statusCode)
   at Microsoft.AspNetCore.Server.Kestrel.Internal.Networking.UvTcpHandle.GetSockIPEndPoint()
   at Microsoft.AspNetCore.Server.Kestrel.Internal.Http.TcpListener.CreateListenSocket()
   at Microsoft.AspNetCore.Server.Kestrel.Internal.Http.Listener.<>c.<StartAsync>b__6_0(Object state)
   --- End of inner exception stack trace ---
   at System.Threading.Tasks.Task.ThrowIfExceptional(Boolean includeTaskCanceledExceptions)
   at System.Threading.Tasks.Task.Wait(Int32 millisecondsTimeout, CancellationToken cancellationToken)
   at Microsoft.AspNetCore.Server.Kestrel.Internal.KestrelEngine.CreateServer(ServerAddress address)
   at Microsoft.AspNetCore.Server.Kestrel.KestrelServer.Start[TContext](IHttpApplication`1 application)
   at Microsoft.AspNetCore.Hosting.Internal.WebHost.Start()
   at Microsoft.AspNetCore.Hosting.WebHostExtensions.Run(IWebHost host, CancellationToken token, String shutdownMessage)
   at Microsoft.AspNetCore.Hosting.WebHostExtensions.Run(IWebHost host)
   at Service.Email.API.Program.Main(String[] args)

Unhandled Exception: System.AggregateException: One or more errors occurred. (Error -98 EADDRINUSE address already in use) ---> Microsoft.AspNetCore.Server.Kestrel.Internal.Networking.UvException: Error -98 EADDRINUSE address already in use
   at Microsoft.AspNetCore.Server.Kestrel.Internal.Networking.Libuv.Check(Int32 statusCode)
   at Microsoft.AspNetCore.Server.Kestrel.Internal.Networking.UvTcpHandle.GetSockIPEndPoint()
   at Microsoft.AspNetCore.Server.Kestrel.Internal.Http.TcpListener.CreateListenSocket()
   at Microsoft.AspNetCore.Server.Kestrel.Internal.Http.Listener.<>c.<StartAsync>b__6_0(Object state)
   --- End of inner exception stack trace ---
   at System.Threading.Tasks.Task.ThrowIfExceptional(Boolean includeTaskCanceledExceptions)
   at System.Threading.Tasks.Task.Wait(Int32 millisecondsTimeout, CancellationToken cancellationToken)
   at Microsoft.AspNetCore.Server.Kestrel.Internal.KestrelEngine.CreateServer(ServerAddress address)
   at Microsoft.AspNetCore.Server.Kestrel.KestrelServer.Start[TContext](IHttpApplication`1 application)
   at Microsoft.AspNetCore.Hosting.Internal.WebHost.Start()
   at Microsoft.AspNetCore.Hosting.WebHostExtensions.Run(IWebHost host, CancellationToken token, String shutdownMessage)
   at Microsoft.AspNetCore.Hosting.WebHostExtensions.Run(IWebHost host)
   at Service.Email.API.Program.Main(String[] args)

Unhandled Exception: System.AggregateException: One or more errors occurred. (Error -98 EADDRINUSE address already in use) ---> Microsoft.AspNetCore.Server.Kestrel.Internal.Networking.UvException: Error -98 EADDRINUSE address already in use
   at Microsoft.AspNetCore.Server.Kestrel.Internal.Networking.Libuv.Check(Int32 statusCode)
   at Microsoft.AspNetCore.Server.Kestrel.Internal.Networking.UvTcpHandle.GetSockIPEndPoint()
   at Microsoft.AspNetCore.Server.Kestrel.Internal.Http.TcpListener.CreateListenSocket()
   at Microsoft.AspNetCore.Server.Kestrel.Internal.Http.Listener.<>c.<StartAsync>b__6_0(Object state)
   --- End of inner exception stack trace ---
   at System.Threading.Tasks.Task.ThrowIfExceptional(Boolean includeTaskCanceledExceptions)
   at System.Threading.Tasks.Task.Wait(Int32 millisecondsTimeout, CancellationToken cancellationToken)
   at Microsoft.AspNetCore.Server.Kestrel.Internal.KestrelEngine.CreateServer(ServerAddress address)
   at Microsoft.AspNetCore.Server.Kestrel.KestrelServer.Start[TContext](IHttpApplication`1 application)
   at Microsoft.AspNetCore.Hosting.Internal.WebHost.Start()
   at Microsoft.AspNetCore.Hosting.WebHostExtensions.Run(IWebHost host, CancellationToken token, String shutdownMessage)
   at Microsoft.AspNetCore.Hosting.WebHostExtensions.Run(IWebHost host)
   at Service.Email.API.Program.Main(String[] args)

Unhandled Exception: System.AggregateException: One or more errors occurred. (Error -98 EADDRINUSE address already in use) ---> Microsoft.AspNetCore.Server.Kestrel.Internal.Networking.UvException: Error -98 EADDRINUSE address already in use
   at Microsoft.AspNetCore.Server.Kestrel.Internal.Networking.Libuv.Check(Int32 statusCode)
   at Microsoft.AspNetCore.Server.Kestrel.Internal.Networking.UvTcpHandle.GetSockIPEndPoint()
   at Microsoft.AspNetCore.Server.Kestrel.Internal.Http.TcpListener.CreateListenSocket()
   at Microsoft.AspNetCore.Server.Kestrel.Internal.Http.Listener.<>c.<StartAsync>b__6_0(Object state)
   --- End of inner exception stack trace ---
   at System.Threading.Tasks.Task.ThrowIfExceptional(Boolean includeTaskCanceledExceptions)
   at System.Threading.Tasks.Task.Wait(Int32 millisecondsTimeout, CancellationToken cancellationToken)
   at Microsoft.AspNetCore.Server.Kestrel.Internal.KestrelEngine.CreateServer(ServerAddress address)
   at Microsoft.AspNetCore.Server.Kestrel.KestrelServer.Start[TContext](IHttpApplication`1 application)
   at Microsoft.AspNetCore.Hosting.Internal.WebHost.Start()
   at Microsoft.AspNetCore.Hosting.WebHostExtensions.Run(IWebHost host, CancellationToken token, String shutdownMessage)
   at Microsoft.AspNetCore.Hosting.WebHostExtensions.Run(IWebHost host)
   at Service.Email.API.Program.Main(String[] args)

Unhandled Exception: System.AggregateException: One or more errors occurred. (Error -98 EADDRINUSE address already in use) ---> Microsoft.AspNetCore.Server.Kestrel.Internal.Networking.UvException: Error -98 EADDRINUSE address already in use
   at Microsoft.AspNetCore.Server.Kestrel.Internal.Networking.Libuv.Check(Int32 statusCode)
   at Microsoft.AspNetCore.Server.Kestrel.Internal.Networking.UvTcpHandle.GetSockIPEndPoint()
   at Microsoft.AspNetCore.Server.Kestrel.Internal.Http.TcpListener.CreateListenSocket()
   at Microsoft.AspNetCore.Server.Kestrel.Internal.Http.Listener.<>c.<StartAsync>b__6_0(Object state)
   --- End of inner exception stack trace ---
   at System.Threading.Tasks.Task.ThrowIfExceptional(Boolean includeTaskCanceledExceptions)
   at System.Threading.Tasks.Task.Wait(Int32 millisecondsTimeout, CancellationToken cancellationToken)
   at Microsoft.AspNetCore.Server.Kestrel.Internal.KestrelEngine.CreateServer(ServerAddress address)
   at Microsoft.AspNetCore.Server.Kestrel.KestrelServer.Start[TContext](IHttpApplication`1 application)
   at Microsoft.AspNetCore.Hosting.Internal.WebHost.Start()
   at Microsoft.AspNetCore.Hosting.WebHostExtensions.Run(IWebHost host, CancellationToken token, String shutdownMessage)
   at Microsoft.AspNetCore.Hosting.WebHostExtensions.Run(IWebHost host)
   at Service.Email.API.Program.Main(String[] args)

Unhandled Exception: System.AggregateException: One or more errors occurred. (Error -98 EADDRINUSE address already in use) ---> Microsoft.AspNetCore.Server.Kestrel.Internal.Networking.UvException: Error -98 EADDRINUSE address already in use
   at Microsoft.AspNetCore.Server.Kestrel.Internal.Networking.Libuv.Check(Int32 statusCode)
   at Microsoft.AspNetCore.Server.Kestrel.Internal.Networking.UvTcpHandle.GetSockIPEndPoint()
   at Microsoft.AspNetCore.Server.Kestrel.Internal.Http.TcpListener.CreateListenSocket()
   at Microsoft.AspNetCore.Server.Kestrel.Internal.Http.Listener.<>c.<StartAsync>b__6_0(Object state)
   --- End of inner exception stack trace ---
   at System.Threading.Tasks.Task.ThrowIfExceptional(Boolean includeTaskCanceledExceptions)
   at System.Threading.Tasks.Task.Wait(Int32 millisecondsTimeout, CancellationToken cancellationToken)
   at Microsoft.AspNetCore.Server.Kestrel.Internal.KestrelEngine.CreateServer(ServerAddress address)
   at Microsoft.AspNetCore.Server.Kestrel.KestrelServer.Start[TContext](IHttpApplication`1 application)
   at Microsoft.AspNetCore.Hosting.Internal.WebHost.Start()
   at Microsoft.AspNetCore.Hosting.WebHostExtensions.Run(IWebHost host, CancellationToken token, String shutdownMessage)
   at Microsoft.AspNetCore.Hosting.WebHostExtensions.Run(IWebHost host)
   at Service.Email.API.Program.Main(String[] args)

Unhandled Exception: System.AggregateException: One or more errors occurred. (Error -98 EADDRINUSE address already in use) ---> Microsoft.AspNetCore.Server.Kestrel.Internal.Networking.UvException: Error -98 EADDRINUSE address already in use
   at Microsoft.AspNetCore.Server.Kestrel.Internal.Networking.Libuv.Check(Int32 statusCode)
   at Microsoft.AspNetCore.Server.Kestrel.Internal.Networking.UvTcpHandle.GetSockIPEndPoint()
   at Microsoft.AspNetCore.Server.Kestrel.Internal.Http.TcpListener.CreateListenSocket()
   at Microsoft.AspNetCore.Server.Kestrel.Internal.Http.Listener.<>c.<StartAsync>b__6_0(Object state)
   --- End of inner exception stack trace ---
   at System.Threading.Tasks.Task.ThrowIfExceptional(Boolean includeTaskCanceledExceptions)
   at System.Threading.Tasks.Task.Wait(Int32 millisecondsTimeout, CancellationToken cancellationToken)
   at Microsoft.AspNetCore.Server.Kestrel.Internal.KestrelEngine.CreateServer(ServerAddress address)
   at Microsoft.AspNetCore.Server.Kestrel.KestrelServer.Start[TContext](IHttpApplication`1 application)
   at Microsoft.AspNetCore.Hosting.Internal.WebHost.Start()
   at Microsoft.AspNetCore.Hosting.WebHostExtensions.Run(IWebHost host, CancellationToken token, String shutdownMessage)
   at Microsoft.AspNetCore.Hosting.WebHostExtensions.Run(IWebHost host)
   at Service.Email.API.Program.Main(String[] args)

Unhandled Exception: System.AggregateException: One or more errors occurred. (Error -98 EADDRINUSE address already in use) ---> Microsoft.AspNetCore.Server.Kestrel.Internal.Networking.UvException: Error -98 EADDRINUSE address already in use
   at Microsoft.AspNetCore.Server.Kestrel.Internal.Networking.Libuv.Check(Int32 statusCode)
   at Microsoft.AspNetCore.Server.Kestrel.Internal.Networking.UvTcpHandle.GetSockIPEndPoint()
   at Microsoft.AspNetCore.Server.Kestrel.Internal.Http.TcpListener.CreateListenSocket()
   at Microsoft.AspNetCore.Server.Kestrel.Internal.Http.Listener.<>c.<StartAsync>b__6_0(Object state)
   --- End of inner exception stack trace ---
   at System.Threading.Tasks.Task.ThrowIfExceptional(Boolean includeTaskCanceledExceptions)
   at System.Threading.Tasks.Task.Wait(Int32 millisecondsTimeout, CancellationToken cancellationToken)
   at Microsoft.AspNetCore.Server.Kestrel.Internal.KestrelEngine.CreateServer(ServerAddress address)
   at Microsoft.AspNetCore.Server.Kestrel.KestrelServer.Start[TContext](IHttpApplication`1 application)
   at Microsoft.AspNetCore.Hosting.Internal.WebHost.Start()
   at Microsoft.AspNetCore.Hosting.WebHostExtensions.Run(IWebHost host, CancellationToken token, String shutdownMessage)
   at Microsoft.AspNetCore.Hosting.WebHostExtensions.Run(IWebHost host)
   at Service.Email.API.Program.Main(String[] args)

Unhandled Exception: System.AggregateException: One or more errors occurred. (Error -98 EADDRINUSE address already in use) ---> Microsoft.AspNetCore.Server.Kestrel.Internal.Networking.UvException: Error -98 EADDRINUSE address already in use
   at Microsoft.AspNetCore.Server.Kestrel.Internal.Networking.Libuv.Check(Int32 statusCode)
   at Microsoft.AspNetCore.Server.Kestrel.Internal.Networking.UvTcpHandle.GetSockIPEndPoint()
   at Microsoft.AspNetCore.Server.Kestrel.Internal.Http.TcpListener.CreateListenSocket()
   at Microsoft.AspNetCore.Server.Kestrel.Internal.Http.Listener.<>c.<StartAsync>b__6_0(Object state)
   --- End of inner exception stack trace ---
   at System.Threading.Tasks.Task.ThrowIfExceptional(Boolean includeTaskCanceledExceptions)
   at System.Threading.Tasks.Task.Wait(Int32 millisecondsTimeout, CancellationToken cancellationToken)
   at Microsoft.AspNetCore.Server.Kestrel.Internal.KestrelEngine.CreateServer(ServerAddress address)
   at Microsoft.AspNetCore.Server.Kestrel.KestrelServer.Start[TContext](IHttpApplication`1 application)
   at Microsoft.AspNetCore.Hosting.Internal.WebHost.Start()
   at Microsoft.AspNetCore.Hosting.WebHostExtensions.Run(IWebHost host, CancellationToken token, String shutdownMessage)
   at Microsoft.AspNetCore.Hosting.WebHostExtensions.Run(IWebHost host)
   at Service.Email.API.Program.Main(String[] args)

Unhandled Exception: System.AggregateException: One or more errors occurred. (Error -98 EADDRINUSE address already in use) ---> Microsoft.AspNetCore.Server.Kestrel.Internal.Networking.UvException: Error -98 EADDRINUSE address already in use
   at Microsoft.AspNetCore.Server.Kestrel.Internal.Networking.Libuv.Check(Int32 statusCode)
   at Microsoft.AspNetCore.Server.Kestrel.Internal.Networking.UvTcpHandle.GetSockIPEndPoint()
   at Microsoft.AspNetCore.Server.Kestrel.Internal.Http.TcpListener.CreateListenSocket()
   at Microsoft.AspNetCore.Server.Kestrel.Internal.Http.Listener.<>c.<StartAsync>b__6_0(Object state)
   --- End of inner exception stack trace ---
   at System.Threading.Tasks.Task.ThrowIfExceptional(Boolean includeTaskCanceledExceptions)
   at System.Threading.Tasks.Task.Wait(Int32 millisecondsTimeout, CancellationToken cancellationToken)
   at Microsoft.AspNetCore.Server.Kestrel.Internal.KestrelEngine.CreateServer(ServerAddress address)
   at Microsoft.AspNetCore.Server.Kestrel.KestrelServer.Start[TContext](IHttpApplication`1 application)
   at Microsoft.AspNetCore.Hosting.Internal.WebHost.Start()
   at Microsoft.AspNetCore.Hosting.WebHostExtensions.Run(IWebHost host, CancellationToken token, String shutdownMessage)
   at Microsoft.AspNetCore.Hosting.WebHostExtensions.Run(IWebHost host)
   at Service.Email.API.Program.Main(String[] args)

Unhandled Exception: System.AggregateException: One or more errors occurred. (Error -98 EADDRINUSE address already in use) ---> Microsoft.AspNetCore.Server.Kestrel.Internal.Networking.UvException: Error -98 EADDRINUSE address already in use
   at Microsoft.AspNetCore.Server.Kestrel.Internal.Networking.Libuv.Check(Int32 statusCode)
   at Microsoft.AspNetCore.Server.Kestrel.Internal.Networking.UvTcpHandle.GetSockIPEndPoint()
   at Microsoft.AspNetCore.Server.Kestrel.Internal.Http.TcpListener.CreateListenSocket()
   at Microsoft.AspNetCore.Server.Kestrel.Internal.Http.Listener.<>c.<StartAsync>b__6_0(Object state)
   --- End of inner exception stack trace ---
   at System.Threading.Tasks.Task.ThrowIfExceptional(Boolean includeTaskCanceledExceptions)
   at System.Threading.Tasks.Task.Wait(Int32 millisecondsTimeout, CancellationToken cancellationToken)
   at Microsoft.AspNetCore.Server.Kestrel.Internal.KestrelEngine.CreateServer(ServerAddress address)
   at Microsoft.AspNetCore.Server.Kestrel.KestrelServer.Start[TContext](IHttpApplication`1 application)
   at Microsoft.AspNetCore.Hosting.Internal.WebHost.Start()
   at Microsoft.AspNetCore.Hosting.WebHostExtensions.Run(IWebHost host, CancellationToken token, String shutdownMessage)
   at Microsoft.AspNetCore.Hosting.WebHostExtensions.Run(IWebHost host)
   at Service.Email.API.Program.Main(String[] args)

Unhandled Exception: System.AggregateException: One or more errors occurred. (Error -98 EADDRINUSE address already in use) ---> Microsoft.AspNetCore.Server.Kestrel.Internal.Networking.UvException: Error -98 EADDRINUSE address already in use
   at Microsoft.AspNetCore.Server.Kestrel.Internal.Networking.Libuv.Check(Int32 statusCode)
   at Microsoft.AspNetCore.Server.Kestrel.Internal.Networking.UvTcpHandle.GetSockIPEndPoint()
   at Microsoft.AspNetCore.Server.Kestrel.Internal.Http.TcpListener.CreateListenSocket()
   at Microsoft.AspNetCore.Server.Kestrel.Internal.Http.Listener.<>c.<StartAsync>b__6_0(Object state)
   --- End of inner exception stack trace ---
   at System.Threading.Tasks.Task.ThrowIfExceptional(Boolean includeTaskCanceledExceptions)
   at System.Threading.Tasks.Task.Wait(Int32 millisecondsTimeout, CancellationToken cancellationToken)
   at Microsoft.AspNetCore.Server.Kestrel.Internal.KestrelEngine.CreateServer(ServerAddress address)
   at Microsoft.AspNetCore.Server.Kestrel.KestrelServer.Start[TContext](IHttpApplication`1 application)
   at Microsoft.AspNetCore.Hosting.Internal.WebHost.Start()
   at Microsoft.AspNetCore.Hosting.WebHostExtensions.Run(IWebHost host, CancellationToken token, String shutdownMessage)
   at Microsoft.AspNetCore.Hosting.WebHostExtensions.Run(IWebHost host)
   at Service.Email.API.Program.Main(String[] args)

Unhandled Exception: System.AggregateException: One or more errors occurred. (Error -98 EADDRINUSE address already in use) ---> Microsoft.AspNetCore.Server.Kestrel.Internal.Networking.UvException: Error -98 EADDRINUSE address already in use
   at Microsoft.AspNetCore.Server.Kestrel.Internal.Networking.Libuv.Check(Int32 statusCode)
   at Microsoft.AspNetCore.Server.Kestrel.Internal.Networking.UvTcpHandle.GetSockIPEndPoint()
   at Microsoft.AspNetCore.Server.Kestrel.Internal.Http.TcpListener.CreateListenSocket()
   at Microsoft.AspNetCore.Server.Kestrel.Internal.Http.Listener.<>c.<StartAsync>b__6_0(Object state)
   --- End of inner exception stack trace ---
   at System.Threading.Tasks.Task.ThrowIfExceptional(Boolean includeTaskCanceledExceptions)
   at System.Threading.Tasks.Task.Wait(Int32 millisecondsTimeout, CancellationToken cancellationToken)
   at Microsoft.AspNetCore.Server.Kestrel.Internal.KestrelEngine.CreateServer(ServerAddress address)
   at Microsoft.AspNetCore.Server.Kestrel.KestrelServer.Start[TContext](IHttpApplication`1 application)
   at Microsoft.AspNetCore.Hosting.Internal.WebHost.Start()
   at Microsoft.AspNetCore.Hosting.WebHostExtensions.Run(IWebHost host, CancellationToken token, String shutdownMessage)
   at Microsoft.AspNetCore.Hosting.WebHostExtensions.Run(IWebHost host)
   at Service.Email.API.Program.Main(String[] args)

Unhandled Exception: System.AggregateException: One or more errors occurred. (Error -98 EADDRINUSE address already in use) ---> Microsoft.AspNetCore.Server.Kestrel.Internal.Networking.UvException: Error -98 EADDRINUSE address already in use
   at Microsoft.AspNetCore.Server.Kestrel.Internal.Networking.Libuv.Check(Int32 statusCode)
   at Microsoft.AspNetCore.Server.Kestrel.Internal.Networking.UvTcpHandle.GetSockIPEndPoint()
   at Microsoft.AspNetCore.Server.Kestrel.Internal.Http.TcpListener.CreateListenSocket()
   at Microsoft.AspNetCore.Server.Kestrel.Internal.Http.Listener.<>c.<StartAsync>b__6_0(Object state)
   --- End of inner exception stack trace ---
   at System.Threading.Tasks.Task.ThrowIfExceptional(Boolean includeTaskCanceledExceptions)
   at System.Threading.Tasks.Task.Wait(Int32 millisecondsTimeout, CancellationToken cancellationToken)
   at Microsoft.AspNetCore.Server.Kestrel.Internal.KestrelEngine.CreateServer(ServerAddress address)
   at Microsoft.AspNetCore.Server.Kestrel.KestrelServer.Start[TContext](IHttpApplication`1 application)
   at Microsoft.AspNetCore.Hosting.Internal.WebHost.Start()
   at Microsoft.AspNetCore.Hosting.WebHostExtensions.Run(IWebHost host, CancellationToken token, String shutdownMessage)
   at Microsoft.AspNetCore.Hosting.WebHostExtensions.Run(IWebHost host)
   at Service.Email.API.Program.Main(String[] args)

Unhandled Exception: System.AggregateException: One or more errors occurred. (Error -98 EADDRINUSE address already in use) ---> Microsoft.AspNetCore.Server.Kestrel.Internal.Networking.UvException: Error -98 EADDRINUSE address already in use
   at Microsoft.AspNetCore.Server.Kestrel.Internal.Networking.Libuv.Check(Int32 statusCode)
   at Microsoft.AspNetCore.Server.Kestrel.Internal.Networking.UvTcpHandle.GetSockIPEndPoint()
   at Microsoft.AspNetCore.Server.Kestrel.Internal.Http.TcpListener.CreateListenSocket()
   at Microsoft.AspNetCore.Server.Kestrel.Internal.Http.Listener.<>c.<StartAsync>b__6_0(Object state)
   --- End of inner exception stack trace ---
   at System.Threading.Tasks.Task.ThrowIfExceptional(Boolean includeTaskCanceledExceptions)
   at System.Threading.Tasks.Task.Wait(Int32 millisecondsTimeout, CancellationToken cancellationToken)
   at Microsoft.AspNetCore.Server.Kestrel.Internal.KestrelEngine.CreateServer(ServerAddress address)
   at Microsoft.AspNetCore.Server.Kestrel.KestrelServer.Start[TContext](IHttpApplication`1 application)
   at Microsoft.AspNetCore.Hosting.Internal.WebHost.Start()
   at Microsoft.AspNetCore.Hosting.WebHostExtensions.Run(IWebHost host, CancellationToken token, String shutdownMessage)
   at Microsoft.AspNetCore.Hosting.WebHostExtensions.Run(IWebHost host)
   at Service.Email.API.Program.Main(String[] args)

Unhandled Exception: System.AggregateException: One or more errors occurred. (Error -98 EADDRINUSE address already in use) ---> Microsoft.AspNetCore.Server.Kestrel.Internal.Networking.UvException: Error -98 EADDRINUSE address already in use
   at Microsoft.AspNetCore.Server.Kestrel.Internal.Networking.Libuv.Check(Int32 statusCode)
   at Microsoft.AspNetCore.Server.Kestrel.Internal.Networking.UvTcpHandle.GetSockIPEndPoint()
   at Microsoft.AspNetCore.Server.Kestrel.Internal.Http.TcpListener.CreateListenSocket()
   at Microsoft.AspNetCore.Server.Kestrel.Internal.Http.Listener.<>c.<StartAsync>b__6_0(Object state)
   --- End of inner exception stack trace ---
   at System.Threading.Tasks.Task.ThrowIfExceptional(Boolean includeTaskCanceledExceptions)
   at System.Threading.Tasks.Task.Wait(Int32 millisecondsTimeout, CancellationToken cancellationToken)
   at Microsoft.AspNetCore.Server.Kestrel.Internal.KestrelEngine.CreateServer(ServerAddress address)
   at Microsoft.AspNetCore.Server.Kestrel.KestrelServer.Start[TContext](IHttpApplication`1 application)
   at Microsoft.AspNetCore.Hosting.Internal.WebHost.Start()
   at Microsoft.AspNetCore.Hosting.WebHostExtensions.Run(IWebHost host, CancellationToken token, String shutdownMessage)
   at Microsoft.AspNetCore.Hosting.WebHostExtensions.Run(IWebHost host)
   at Service.Email.API.Program.Main(String[] args)
